x_axis, mpv, mpv error
50 2.08471 0.0109579
x_axis, mpv, mpv error
100 3.19016 0.0154981
x_axis, mpv, mpv error
150 4.17006 0.0196654
x_axis, mpv, mpv error
200 5.32701 0.0257981
x_axis, mpv, mpv error
250 7.26155 0.0358577
x_axis, mpv, mpv error
300 8.31528 0.0386066
x_axis, mpv, mpv error
350 8.75556 0.0400958
x_axis, mpv, mpv error
400 9.14451 0.0446112
x_axis, mpv, mpv error
450 9.32389 0.0438439
x_axis, mpv, mpv error
500 9.48561 0.044294
x_axis, mpv, mpv error
550 9.57724 0.044405
x_axis, mpv, mpv error
600 9.64168 0.0466045
x_axis, mpv, mpv error
650 9.81825 0.0436073
x_axis, mpv, mpv error
700 9.90127 0.0511659
x_axis, mpv, mpv error
750 9.91348 0.0475577
x_axis, mpv, mpv error
800 9.99681 0.0479925
x_axis, mpv, mpv error
850 9.98198 0.0460558
x_axis, mpv, mpv error
900 10.0674 0.0455765
