x_axis, mpv, mpv error
50 2.9407 0.0184288
x_axis, mpv, mpv error
100 5.40264 0.0289994
x_axis, mpv, mpv error
150 8.36408 0.0452624
x_axis, mpv, mpv error
200 9.1095 0.0509595
x_axis, mpv, mpv error
250 9.59205 0.0496124
x_axis, mpv, mpv error
300 9.90386 0.0552382
x_axis, mpv, mpv error
350 10.0794 0.0538909
x_axis, mpv, mpv error
400 10.3593 0.052095
x_axis, mpv, mpv error
450 10.3787 0.0547785
x_axis, mpv, mpv error
500 10.5004 0.0535268
x_axis, mpv, mpv error
550 10.6323 0.0538958
x_axis, mpv, mpv error
600 10.6396 0.0622357
x_axis, mpv, mpv error
650 10.8576 0.0613646
x_axis, mpv, mpv error
700 10.6511 0.0608973
x_axis, mpv, mpv error
750 10.7506 0.0575227
x_axis, mpv, mpv error
800 11.031 0.0615257
x_axis, mpv, mpv error
850 10.8933 0.0580556
x_axis, mpv, mpv error
900 10.8459 0.0591898
